Front Pair Number,Constant Front Current [mA],Non-constant Front Current [mA]
1,5,0
1,5,0.1
1,5,0.2
1,5,0.32
1,5,0.45
1,5,0.58
1,5,0.73
1,5,0.9
1,5,1.08
1,5,1.27
1,5,1.48
1,5,1.71
1,5,1.97
1,5,2.24
1,5,2.54
1,5,2.87
1,5,3.22
1,5,3.61
1,5,4.04
1,5,4.5
1,5,5
2,5,0
2,5,0.1
2,5,0.2
2,5,0.32
2,5,0.45
2,5,0.58
2,5,0.73
2,5,0.9
2,5,1.08
2,5,1.27
2,5,1.48
2,5,1.71
2,5,1.97
2,5,2.24
2,5,2.54
2,5,2.87
2,5,3.22
2,5,3.61
2,5,4.04
2,5,4.5
2,5,5
3,5,0
3,5,0.1
3,5,0.2
3,5,0.32
3,5,0.45
3,5,0.58
3,5,0.73
3,5,0.9
3,5,1.08
3,5,1.27
3,5,1.48
3,5,1.71
3,5,1.97
3,5,2.24
3,5,2.54
3,5,2.87
3,5,3.22
3,5,3.61
3,5,4.04
3,5,4.5
3,5,5
4,5,0
4,5,0.1
4,5,0.2
4,5,0.32
4,5,0.45
4,5,0.58
4,5,0.73
4,5,0.9
4,5,1.08
4,5,1.27
4,5,1.48
4,5,1.71
4,5,1.97
4,5,2.24
4,5,2.54
4,5,2.87
4,5,3.22
4,5,3.61
4,5,4.04
4,5,4.5
4,5,5
5,5,0
5,5,0.1
5,5,0.2
5,5,0.32
5,5,0.45
5,5,0.58
5,5,0.73
5,5,0.9
5,5,1.08
5,5,1.27
5,5,1.48
5,5,1.71
5,5,1.97
5,5,2.24
5,5,2.54
5,5,2.87
5,5,3.22
5,5,3.61
5,5,4.04
5,5,4.5
5,5,5
6,5,0
6,5,0.1
6,5,0.2
6,5,0.32
6,5,0.45
6,5,0.58
6,5,0.73
6,5,0.9
6,5,1.08
6,5,1.27
6,5,1.48
6,5,1.71
6,5,1.97
6,5,2.24
6,5,2.54
6,5,2.87
6,5,3.22
6,5,3.61
6,5,4.04
6,5,4.5
6,5,5
7,5,0
7,5,0.1
7,5,0.2
7,5,0.32
7,5,0.45
7,5,0.58
7,5,0.73
7,5,0.9
7,5,1.08
7,5,1.27
7,5,1.48
7,5,1.71
7,5,1.97
7,5,2.24
7,5,2.54
7,5,2.87
7,5,3.22
7,5,3.61
7,5,4.04
7,5,4.5
7,5,5
