COMMENTS,Comments,0,0,none,&,0,3,0
EQUIP_ID,Equipment Identification,-9999,9999,none,&,0,4,0
NODE,Node Number,-9999,9999,none,&,0,1,0
OPERATOR_ID,Operator identifier,-9999,9999,none,&,0,4,0
SERIAL_NO,Component ID,-9999,9999,none,80A,0,5,0
TEST_STATUS,Global pass fail flag,0,0,none,&,0,6,0
TESTENGINE_STATUS,Test Engine status,0,0,none,&,0,4,0
TIME_DATE,Time and Date,-9999,9999,none,14A,0,6,0
