Device Type,Chirp Type
TL6000ZCH,ZD
PA009181,ZD
PA008975,ZD
PA007371,ND
PA008163,ND
PA008335,ND
PA009585,ND
PA006690,ND
PA010149,ND
PA012960,ND
PA006435,ND
PA011282,ND
PA012961,ND
PA009963,ND
TL6000ZCA,ND
TL6000ZCB,ND
TL6000NCP,ND
PA008472,ZD
PA009481,ZD
PA010199,ZD
PA010504,ZD
PA010648,ZD
PA011593,ZD
TL6000ZCP,ZD
Hitt_GR&R,ND
HIT2,ND