CG_ID,-9999,9999,none,256A,0,3,0
CG_ITUEST_POINTS_FILE,-9999,9999,none,256A,0,3,0
CG_PASSFAIL_FILE,-9999,9999,none,256A,0,3,0
CG_PHASE_MODE_ACQ_FILE,-9999,9999,none,256A,0,3,0
CG_PRATIO_WL_FILE,-9999,9999,none,256A,0,3,0
CG_QAMETRICS_FILE,-9999,9999,none,256A,0,3,0
CG_SM_LINES_FILE,-9999,9999,none,256A,0,3,0
CHAR_ITU_OP_COUNT,89,9999,none,0,0,1,0
COMMENTS,-9999,9999,none,256A,0,3,0
EQUIP_ID,-9999,9999,none,80A,0,4,0
ETALON1_FREQ,-9999,9999,GHz,#0.0,0,2,0
ETALON1_FS_B,-9999,9999,mA,#0.00,0,2,0
ETALON1_FS_PAIR,-9999,9999,none,0,0,1,0
ETALON1_PHASE,-9999,9999,mA,#0.00,0,2,0
ETALON1_REAR,-9999,9999,mA,#0.00,0,2,0
ETALON1_REARSOA,-9999,9999,mA,#0.00,0,2,0
FACTORY_WORKS_FAILMODE,-9999,9999,none,14A,0,6,0
FACTORY_WORKS_LOTID,-9999,9999,none,14A,0,6,0
FACTORY_WORKS_PARTID,-9999,9999,none,14A,0,6,0
FAIL_ABORT_REASON,-9999,9999,none,256A,0,3,0
FIBRE_POWER_INITIAL,-9999,9999,dBm,#0.00,0,2,0
I_ETALON_FS_A,-9999,9999,mA,#0.00,0,2,0
I_ETALON_GAIN,-9999,9999,mA,#0.00,0,2,0
I_ETALON_SOA,-9999,9999,mA,#0.00,0,2,0
IRX_DARK,-9999,9999,mA,#0.0000000,0,2,0
ITU_OP_EST_COUNT,-9999,9999,none,0,0,1,0
ITX_DARK,-9999,9999,mA,#0.0000000,0,2,0
LABOUR_TIME,-9999,9999,min,#0.00,0,2,0
LASER_AC_RESISTANCE_CHANGE,-9999,9999,ohm,#0.0,0,2,0
LASER_CHIP_ID,-9999,9999,none,14A,0,6,0
LASER_RTH,-9999,9999,ohm,0,0,2,0
LASER_TEC_AC_RESISTANCE,-9999,9999,ohm,#0.0,0,2,0
LASER_WAFER_ID,-9999,9999,none,14A,0,6,0
LASER_WAFER_SIZE,-9999,9999,none,256A,0,3,0
MATRIX_PRATIO_SUMMARY_MAP,-9999,9999,none,256A,0,3,0
MILD_MULTIMODE_SM0,-9999,9999,none,0,0,1,0
MILD_MULTIMODE_SM1,-9999,9999,none,0,0,1,0
MILD_MULTIMODE_SM2,-9999,9999,none,0,0,1,0
MILD_MULTIMODE_SM3,-9999,9999,none,0,0,1,0
MILD_MULTIMODE_SM4,-9999,9999,none,0,0,1,0
MILD_MULTIMODE_SM5,-9999,9999,none,0,0,1,0
MILD_MULTIMODE_SM6,-9999,9999,none,0,0,1,0
MILD_MULTIMODE_SM7,-9999,9999,none,0,0,1,0
MODAL_DISTORT_SM0,-9999,9999,none,#0.0,0,2,0
MODAL_DISTORT_SM1,-9999,9999,none,#0.0,0,2,0
MODAL_DISTORT_SM2,-9999,9999,none,#0.0,0,2,0
MODAL_DISTORT_SM3,-9999,9999,none,#0.0,0,2,0
MODAL_DISTORT_SM4,-9999,9999,none,#0.0,0,2,0
MODAL_DISTORT_SM5,-9999,9999,none,#0.0,0,2,0
MODAL_DISTORT_SM6,-9999,9999,none,#0.0,0,2,0
MODAL_DISTORT_SM7,-9999,9999,none,#0.0,0,2,0
MZ_MAX_V_BIAS,-9999,9999,V,#0.00,0,2,0
NODE,-9999,9999,none,0,0,1,0
NUM_MISSING_EST_CHAN,-9999,9999,none,0,0,1,0
NUM_SM,-9999,9999,none,0,0,1,0
OPERATOR_ID,-9999,9999,none,80A,0,4,0
PRODUCT_CODE,-9999,9999,none,14A,0,6,0
REF_FIBRE_POWER,-9999,9999,dBm,#0.00,0,2,0
REF_FREQ,-9999,9999,GHz,#0.0,0,2,0
REF_POWER,-9999,9999,dBm,#0.0,0,2,0
REF_LV_FILE,-9999,9999,none,256A,0,3,0
REF_MZ_RATIO,-9999,9999,mA,#0.00,0,2,0
REF_MZ_SUM,-9999,9999,mA,#0.00,0,2,0
REF_MZ_VOFF_LEFT,-9999,9999,V,#0.00,0,2,0
REF_MZ_VOFF_RIGHT,-9999,9999,V,#0.00,0,2,0
REF_MZ_VON_LEFT,-9999,9999,V,#0.00,0,2,0
REF_MZ_VON_RIGHT,-9999,9999,V,#0.00,0,2,0
RETEST,-9999,9999,none,14A,0,6,0
SOFTWARE_ID,-9999,9999,none,80A,0,4,0
TC_CAL_OFFSET,-9999,9999,GHz,#0.0,0,2,0
TC_FIBRE_TARGET_POWER,-9999,9999,dBm,#0.00,0,2,0
TC_FIBRE_TARGET_POWER_TOL,-9999,9999,dB,#0.00,0,2,0
TC_FREQ_BAND,-9999,9999,none,0,0,1,0
TC_GAIN_I_OVERALL_MAP,-9999,9999,mA,#0.00,0,2,0
TC_NUM_CHAN_REQUIRED,-9999,9999,none,0,0,1,0
TC_OPTICAL_FREQ_START,-9999,9999,GHz,#0.0,0,2,0
TC_OPTICAL_FREQ_STEP,-9999,9999,GHz,#0.0,0,2,0
TC_OPTICAL_FREQ_TOL,-9999,9999,GHz,#0.0,0,2,0
TC_PHASE_I_OVERALL_MAP,-9999,9999,mA,#0.00,0,2,0
TC_SOA_I_OVERALL_MAP,-9999,9999,mA,#0.00,0,2,0
TC_REARSOA_I_OVERALL_MAP,-9999,9999,mA,#0.00,0,2,0
TC_T_CASE_MID,-9999,9999,C,#0.0,0,2,0
TEST_STATUS,-9999,9999,none,25A,0,6,0
TEST_TIME,-9999,9999,min,#0.00,0,2,0
TIME_DATE,-9999,9999,none,14A,0,6,0
MZ_MOD_RIGHT_DARK_I,-9999,9999,mA,#0.000000,0,2,0
MZ_MOD_LEFT_DARK_I,-9999,9999,mA,#0.000000,0,2,0
TAP_COMP_DARK_I,-9999,9999,mA,#0.000000,0,2,0
