CG_DUT_FILE_TIMESTAMP,,-9999,9999,none,14A,0,6,0
CG_LM_LINES_SM_FILE,,-9999,9999,none,256A,0,3,0
EQUIP_ID,,-9999,9999,none,256A,0,3,0
GAIN_I_SM_MAP,,-9999,9999,mA,#0.00,0,2,0
HYSTERESIS_PERCENT_SM,,-9999,9999,%,#0.00,0,2,0
MATRIX_PHOTO1_FWD_MAP_SM,,-9999,9999,none,256A,0,3,0
MATRIX_PHOTO1_REV_MAP_SM,,-9999,9999,none,256A,0,3,0
MODAL_DISTORT_SM,,-9999,9999,none,#0.00,0,2,0
NUM_LM,,-9999,9999,none,0,0,1,0
SM_ID,,-9999,9999,none,0,0,1,0
SOA_I_SM_MAP,,-9999,9999,mA,#0.00,0,2,0
TEST_STATUS,,-9999,9999,none,14A,0,6,0
SPEC_ID,,-9999,9999,none,80A,0,4,0
TIME_DATE,,-9999,9999,none,14A,0,6,0
NODE,,-9999,9999,none,0,0,1,0